﻿"ItemName","ItemCode","CategoryName","LocationName","ProjectName","Supplier","Department","Details","BaseValue","ItemTax","ItemVAT","TotalValue","PurchaseDate","OpeningDepreciation","DepreciationRate","DepreciationModel"
"COMPUTER TABLE","BAPSA/SIDA 001/HQ/TT/0002","Tables","Head Office","SIDA","Not Known","Administrator","BLACK COLOR
","3231.39","5","3","3500","01/03/2017 12:00:00 AM","0","10","Declining Balance"
"COMPUTER TABLE","BAPSA/SIDA 001/HQ/TT/0003","Tables","Kalshi Branch","SIDA","Not Known","Administrator","BLACK COLOR
","3231.39","5","3","3500","04/05/2017 12:00:00 AM","0","10","Declining Balance"
"COMPUTER TABLE","BAPSA/SIDA 001/HQ/TT/0004","Tables","Head Office","SIDA","Not Known","Humain Resource","BLACK COLOR
","3138.8","8","3","3500","04/05/2017 12:00:00 AM","0","15","Declining Balance"
"COMPUTER TABLE","BAPSA/SIDA 001/HQ/TT/0005","Tables","Head Office","SIDA","Not Known","Humain Resource","BLACK COLOR
","3138.8","8","3","3500","04/10/2017 12:00:00 AM","0","15","Declining Balance"
"COMPUTER TABLE","BAPSA/SIDA 001/HQ/TT/0006","Tables","Head Office","SIDA","Not Known","Administrator","BLACK COLOR
","3074.07","8","5","3500","04/10/2017 12:00:00 AM","0","10","Declining Balance"
"COMPUTER TABLE","BAPSA/SIDA 001/HQ/TT/0007","Tables","Kalshi Branch","SIDA","Not Known","Administrator","BLACK COLOR
","3074.07","8","5","3500","04/17/2017 12:00:00 AM","0","10","Declining Balance"
"COMPUTER CHAIR","BAPSA/SIDA 001/HQ/CH/0008","Chairs","Head Office","SIDA","Not Known","Information Technology","BLACK COLOR
","2000","5","10","2300","04/17/2017 12:00:00 AM","0","10","Straight Line"
"COMPUTER CHAIR","BAPSA/SIDA 001/HQ/CH/0009","Chairs","Head Office","SIDA","Not Known","Administrator","BLACK COLOR
","2000","5","10","2300","04/17/2017 12:00:00 AM","0","50","Declining Balance"
"Computer Chair","BAPSA/SIDA 001/MR/CH/0010","Chairs","Kalshi Branch","SIDA","Akhtar Furniture","Humain Resource","HANDLE & WHEEL","8000","7.5","5","9000","02/07/2017 12:00:00 AM","200","0","Sum of Years"
"EXECUTIVE TABLE","AN-00008","Tables","Head Office","SIDA","Regal","Information Technology","BLACK COLOR","4500","5","3","4860","04/22/2017 12:00:00 AM","0","10","Declining Balance"
"EXECUTIVE CHAIR","AN-00010","Chairs","NoaKhali Branch","SIDA","Regal","Information Technology","HANDLE & WHEEL","2492.79","5","3","2700","01/09/2017 12:00:00 AM","500","12","Declining Balance"
"FILE CABINET","AN-00017","Cabinet","Kalshi Branch","SIDA","Regal","Humain Resource","test","3231.39","5","3","3500","04/23/2017 12:00:00 AM","0","12","Straight Line"
"STEEL ALMIRAH","AN-00016","Almirah","Head Office","SIDA","Not Known","Humain Resource","","4616.27","5","3","5000","02/14/2017 12:00:00 AM","1200","15","Declining Balance"
